<?xml version="1.0" encoding="UTF-8" standalone="no"?>
<!-- Generator: Adobe Illustrator 16.0.3, SVG Export Plug-In . SVG Version: 6.00 Build 0)  -->

<svg
   xmlns:dc="http://purl.org/dc/elements/1.1/"
   xmlns:cc="http://creativecommons.org/ns#"
   xmlns:rdf="http://www.w3.org/1999/02/22-rdf-syntax-ns#"
   xmlns:svg="http://www.w3.org/2000/svg"
   xmlns="http://www.w3.org/2000/svg"
   xmlns:sodipodi="http://sodipodi.sourceforge.net/DTD/sodipodi-0.dtd"
   xmlns:inkscape="http://www.inkscape.org/namespaces/inkscape"
   version="1.1"
   id="Warstwa_1"
   x="0px"
   y="0px"
   width="6.435px"
   height="3.764px"
   viewBox="0 0 6.435 3.764"
   enable-background="new 0 0 6.435 3.764"
   xml:space="preserve"
   inkscape:version="0.91 r13725"
   sodipodi:docname="arrow_up.svg"><metadata
     id="metadata9"><rdf:RDF><cc:Work
         rdf:about=""><dc:format>image/svg+xml</dc:format><dc:type
           rdf:resource="http://purl.org/dc/dcmitype/StillImage" /><dc:title></dc:title></cc:Work></rdf:RDF></metadata><defs
     id="defs7" /><sodipodi:namedview
     pagecolor="#ffffff"
     bordercolor="#666666"
     borderopacity="1"
     objecttolerance="10"
     gridtolerance="10"
     guidetolerance="10"
     inkscape:pageopacity="0"
     inkscape:pageshadow="2"
     inkscape:window-width="1409"
     inkscape:window-height="769"
     id="namedview5"
     showgrid="false"
     inkscape:zoom="47.241648"
     inkscape:cx="3.2175"
     inkscape:cy="1.882"
     inkscape:window-x="2152"
     inkscape:window-y="105"
     inkscape:window-maximized="0"
     inkscape:current-layer="Warstwa_1" /><path
     d="m 0.16034965,3.6030028 c 0.229,0.229 0.618,0.21 0.87099995,-0.043 l 2.186,-2.186 2.1850001,2.186 c 0.253,0.253 0.643,0.272 0.8719999,0.043 0.229,-0.229 0.21,-0.619 -0.043,-0.871 l -2.535,-2.53499995 c -0.08,-0.08 -0.175,-0.128 -0.273,-0.16 -0.019,-0.008 -0.039,-0.01 -0.059,-0.015 -0.05,-0.012 -0.099,-0.022000002092 -0.148,-0.022000002092 -0.047,0 -0.092,0.011000002092 -0.139,0.021000002092 -0.022,0.006 -0.046,0.007 -0.067,0.016 -0.098,0.033 -0.193,0.08 -0.272,0.16 L 0.20334965,2.7320028 c -0.254,0.252 -0.272,0.642 -0.043,0.871 z"
     id="path3"
     inkscape:connector-curvature="0"
     style="clip-rule:evenodd;fill:#474950;fill-rule:evenodd" /></svg>