<?xml version="1.0" encoding="utf-8"?>
<!-- Generator: Adobe Illustrator 16.0.3, SVG Export Plug-In . SVG Version: 6.00 Build 0)  -->
<!DOCTYPE svg PUBLIC "-//W3C//DTD SVG 1.1//EN" "http://www.w3.org/Graphics/SVG/1.1/DTD/svg11.dtd">
<svg version="1.1" id="Warstwa_1" xmlns="http://www.w3.org/2000/svg" xmlns:xlink="http://www.w3.org/1999/xlink" x="0px" y="0px"
	 width="11.872px" height="11.871px" viewBox="0 0 11.872 11.871" enable-background="new 0 0 11.872 11.871" xml:space="preserve">
<g>
	<g>
		<path fill="#5E7799" d="M5.937,11.871C2.663,11.871,0,9.208,0,5.936C0,2.663,2.663,0,5.937,0c3.272,0,5.936,2.663,5.936,5.936
			C11.872,9.208,9.209,11.871,5.937,11.871z M5.937,1C3.215,1,1,3.214,1,5.936s2.215,4.936,4.937,4.936s4.936-2.214,4.936-4.936
			S8.658,1,5.937,1z"/>
	</g>
	<g>
		<polygon fill="#5E7799" points="6.587,6.587 3.587,6.587 3.587,5.587 5.587,5.587 5.587,2.587 6.587,2.587 		"/>
	</g>
</g>
</svg>
