<?xml version="1.0" encoding="utf-8"?>
<!-- Generator: Adobe Illustrator 16.0.3, SVG Export Plug-In . SVG Version: 6.00 Build 0)  -->
<!DOCTYPE svg PUBLIC "-//W3C//DTD SVG 1.1//EN" "http://www.w3.org/Graphics/SVG/1.1/DTD/svg11.dtd">
<svg version="1.1" id="Warstwa_1" xmlns="http://www.w3.org/2000/svg" xmlns:xlink="http://www.w3.org/1999/xlink" x="0px" y="0px"
	 width="12.273px" height="15px" viewBox="0 0 12.273 15" enable-background="new 0 0 12.273 15" xml:space="preserve">
<path fill="#5E7799" d="M12.27,14.243l-0.455-4.091c-0.028-0.252-0.192-0.467-0.428-0.56L7.885,8.215
	c1.457-0.695,2.469-2.178,2.469-3.896C10.354,1.937,8.417,0,6.036,0S1.718,1.937,1.718,4.318c0,1.753,1.052,3.262,2.557,3.938
	L0.887,9.593C0.651,9.686,0.487,9.9,0.459,10.152l-0.455,4.091c-0.021,0.192,0.041,0.386,0.17,0.53C0.304,14.918,0.488,15,0.683,15
	h10.908c0.194,0,0.379-0.082,0.509-0.227C12.229,14.629,12.29,14.436,12.27,14.243z M3.081,4.318c0-1.629,1.326-2.955,2.955-2.955
	S8.99,2.689,8.99,4.318c0,1.629-1.325,2.955-2.954,2.955S3.081,5.947,3.081,4.318z M1.444,13.637l0.324-2.926l4.363-1.722
	l4.373,1.722l0.324,2.926H1.444z"/>
</svg>
