<?xml version="1.0" encoding="utf-8"?>
<!-- Generator: Adobe Illustrator 16.0.3, SVG Export Plug-In . SVG Version: 6.00 Build 0)  -->
<!DOCTYPE svg PUBLIC "-//W3C//DTD SVG 1.1//EN" "http://www.w3.org/Graphics/SVG/1.1/DTD/svg11.dtd">
<svg version="1.1" id="Warstwa_1" xmlns="http://www.w3.org/2000/svg" xmlns:xlink="http://www.w3.org/1999/xlink" x="0px" y="0px"
	 width="13.985px" height="13.986px" viewBox="0 0 13.985 13.986" enable-background="new 0 0 13.985 13.986" xml:space="preserve">
<path fill-rule="evenodd" clip-rule="evenodd" fill="#5E7799" d="M12.587,4.196L9.79,1.399L11.188,0l2.797,2.798L12.587,4.196z
	 M4.195,12.588L1.398,9.791l7.692-7.692l2.797,2.797L4.195,12.588z M0,13.986l0.699-3.497l2.797,2.798L0,13.986z"/>
</svg>
