<?xml version="1.0" encoding="utf-8"?>
<!-- Generator: Adobe Illustrator 16.0.3, SVG Export Plug-In . SVG Version: 6.00 Build 0)  -->
<!DOCTYPE svg PUBLIC "-//W3C//DTD SVG 1.1//EN" "http://www.w3.org/Graphics/SVG/1.1/DTD/svg11.dtd">
<svg version="1.1" id="Warstwa_1" xmlns="http://www.w3.org/2000/svg" xmlns:xlink="http://www.w3.org/1999/xlink" x="0px" y="0px"
	 width="13.96px" height="14.5px" viewBox="0 0.5 13.96 14.5" enable-background="new 0 0.5 13.96 14.5" xml:space="preserve">
<path fill="#7AC0E4" d="M13.958,8.23l-0.738,4.438C13.2,12.743,12.725,14.5,9.601,14.5c-0.162-0.004-3.208-0.101-4.908-1.524V5.562
	c0.001,0.005,0.002,0.009,0.004,0.014C5.365,5.004,6.412,4.003,6.59,2.674c0.064-0.799,0.449-2.13,1.495-2.16
	C8.13,0.507,8.201,0.5,8.292,0.5c0.25,0,0.643,0.057,0.993,0.347c0.441,0.365,0.664,0.967,0.664,1.79
	c0.003,0.059,0.06,2.077-0.451,3.417l2.69,0.198C12.835,6.324,14.014,6.829,13.958,8.23z M2.05,3.956C0.92,3.956,0,4.963,0,6.202
	v5.649c0,1.238,0.919,2.246,2.051,2.246c0.758,0,1.424-0.456,1.778-1.132c0.003,0.004,0.009,0.008,0.013,0.011V5.562
	C3.584,4.647,2.969,3.956,2.05,3.956z"/>
</svg>
