<?xml version="1.0" encoding="utf-8"?>
<!-- Generator: Adobe Illustrator 16.0.3, SVG Export Plug-In . SVG Version: 6.00 Build 0)  -->
<!DOCTYPE svg PUBLIC "-//W3C//DTD SVG 1.1//EN" "http://www.w3.org/Graphics/SVG/1.1/DTD/svg11.dtd">
<svg version="1.1" id="Warstwa_1" xmlns="http://www.w3.org/2000/svg" xmlns:xlink="http://www.w3.org/1999/xlink" x="0px" y="0px"
	 width="16px" height="16px" viewBox="0 0 16 16" enable-background="new 0 0 16 16" xml:space="preserve">
<g>
	<path fill="#5E7799" d="M0.556,8.555C0.25,8.555,0,8.306,0,8c0-4.412,3.589-8,8-8c2.208,0,4.316,0.918,5.825,2.527V0.555
		c0-0.306,0.25-0.555,0.556-0.555c0.307,0,0.556,0.249,0.556,0.555V4.1c0,0.307-0.249,0.556-0.556,0.556h-3.545
		c-0.307,0-0.556-0.249-0.556-0.556c0-0.306,0.249-0.555,0.556-0.555h2.417C11.941,1.995,10.04,1.111,8,1.111
		c-3.799,0-6.889,3.09-6.889,6.889C1.111,8.306,0.862,8.555,0.556,8.555z"/>
	<path fill="#5E7799" d="M8,1.01c2.148,0,4.13,0.958,5.466,2.635h-2.63c-0.251,0-0.455,0.204-0.455,0.455
		c0,0.251,0.204,0.455,0.455,0.455h3.545c0.251,0,0.455-0.204,0.455-0.455V0.555c0-0.251-0.204-0.455-0.455-0.455
		s-0.455,0.204-0.455,0.455v2.233C12.423,1.076,10.28,0.101,8,0.101c-4.356,0-7.9,3.543-7.9,7.899c0,0.251,0.205,0.455,0.455,0.455
		c0.251,0,0.455-0.204,0.455-0.455C1.011,4.146,4.146,1.01,8,1.01z"/>
	<path fill="#5E7799" d="M8,16c-2.208,0-4.316-0.918-5.825-2.527v1.972C2.175,15.751,1.926,16,1.62,16
		c-0.307,0-0.556-0.249-0.556-0.556v-3.545c0-0.307,0.249-0.556,0.556-0.556h3.545c0.306,0,0.556,0.249,0.556,0.556
		s-0.25,0.556-0.556,0.556H2.748c1.311,1.55,3.214,2.434,5.252,2.434c3.799,0,6.889-3.09,6.889-6.889
		c0-0.306,0.25-0.556,0.556-0.556C15.751,7.444,16,7.694,16,8C16,12.411,12.412,16,8,16z"/>
	<path fill="#5E7799" d="M15.445,7.545c-0.251,0-0.455,0.204-0.455,0.455c0,3.854-3.135,6.989-6.989,6.989
		c-2.149,0-4.13-0.958-5.465-2.635h2.629c0.25,0,0.455-0.204,0.455-0.455s-0.205-0.455-0.455-0.455H1.62
		c-0.251,0-0.455,0.204-0.455,0.455v3.545c0,0.251,0.204,0.455,0.455,0.455c0.25,0,0.455-0.204,0.455-0.455v-2.231
		C3.578,14.924,5.722,15.899,8,15.899c4.355,0,7.899-3.544,7.899-7.899C15.9,7.749,15.696,7.545,15.445,7.545z"/>
</g>
</svg>
