<?xml version="1.0" encoding="utf-8"?>
<!-- Generator: Adobe Illustrator 16.0.3, SVG Export Plug-In . SVG Version: 6.00 Build 0)  -->
<!DOCTYPE svg PUBLIC "-//W3C//DTD SVG 1.1//EN" "http://www.w3.org/Graphics/SVG/1.1/DTD/svg11.dtd">
<svg version="1.1" id="Warstwa_1" xmlns="http://www.w3.org/2000/svg" xmlns:xlink="http://www.w3.org/1999/xlink" x="0px" y="0px"
	 width="13.371px" height="12.642px" viewBox="0 0 13.371 12.642" enable-background="new 0 0 13.371 12.642" xml:space="preserve">
<g>
	<path fill="#ffffff" d="M1.077,12.642l0.567-1.337c0.277-0.654,0.514-1.376,0.557-1.684C0.8,8.574,0,7.09,0,5.522
		C0,2.477,2.999,0,6.686,0s6.686,2.477,6.686,5.522c0,3.044-2.999,5.522-6.686,5.522c-0.659,0-1.311-0.079-1.936-0.233
		c-0.229,0.02-1.445,0.596-2.403,1.127L1.077,12.642z M6.686,1C3.551,1,1,3.028,1,5.522c0,1.295,0.704,2.533,1.931,3.393
		c0.185,0.128,0.467,0.325,0.099,1.538c0.672-0.328,1.401-0.635,1.776-0.635L4.991,9.84c0.546,0.135,1.116,0.204,1.694,0.204
		c3.135,0,5.686-2.028,5.686-4.522S9.82,1,6.686,1z"/>
</g>
</svg>
