<?xml version="1.0" encoding="utf-8"?>
<!-- Generator: Adobe Illustrator 16.0.3, SVG Export Plug-In . SVG Version: 6.00 Build 0)  -->
<!DOCTYPE svg PUBLIC "-//W3C//DTD SVG 1.1//EN" "http://www.w3.org/Graphics/SVG/1.1/DTD/svg11.dtd">
<svg version="1.1" id="Warstwa_1" xmlns="http://www.w3.org/2000/svg" xmlns:xlink="http://www.w3.org/1999/xlink" x="0px" y="0px"
	 width="9px" height="32.734px" viewBox="0 0 9 32.734" enable-background="new 0 0 9 32.734" xml:space="preserve">
<g>
	<path fill-rule="evenodd" clip-rule="evenodd" fill="#5E7799" d="M8.934,32.603c0.09-0.174,0.09-0.457,0-0.631L0.802,16.195
		c-0.09-0.174-0.645-0.174-0.734,0s-0.09,0.457,0,0.631L8.2,32.603C8.29,32.777,8.844,32.777,8.934,32.603z"/>
	<path fill-rule="evenodd" clip-rule="evenodd" fill="#5E7799" d="M8.934,0.131c0.09,0.174,0.09,0.457,0,0.631L0.802,16.539
		c-0.09,0.174-0.645,0.174-0.734,0s-0.09-0.457,0-0.631L8.2,0.131C8.29-0.043,8.844-0.043,8.934,0.131z"/>
</g>
</svg>
