<?xml version="1.0" encoding="utf-8"?>
<!-- Generator: Adobe Illustrator 16.0.3, SVG Export Plug-In . SVG Version: 6.00 Build 0)  -->
<!DOCTYPE svg PUBLIC "-//W3C//DTD SVG 1.1//EN" "http://www.w3.org/Graphics/SVG/1.1/DTD/svg11.dtd">
<svg version="1.1" id="Warstwa_1" xmlns="http://www.w3.org/2000/svg" xmlns:xlink="http://www.w3.org/1999/xlink" x="0px" y="0px"
	 width="9px" height="32.734px" viewBox="0 0 9 32.734" enable-background="new 0 0 9 32.734" xml:space="preserve">
<g>
	<path fill-rule="evenodd" clip-rule="evenodd" fill="#5E7799" d="M0.802,32.603l8.132-15.777c0.09-0.174,0.09-0.457,0-0.631
		s-0.645-0.174-0.734,0L0.067,31.972c-0.09,0.174-0.09,0.457,0,0.631C0.157,32.777,0.712,32.777,0.802,32.603z"/>
	<path fill-rule="evenodd" clip-rule="evenodd" fill="#5E7799" d="M0.802,0.131l8.132,15.776c0.09,0.175,0.09,0.457,0,0.631
		s-0.645,0.174-0.734,0L0.067,0.762c-0.09-0.174-0.09-0.457,0-0.631C0.157-0.043,0.712-0.043,0.802,0.131z"/>
</g>
</svg>
