<?xml version="1.0" encoding="utf-8"?>
<!-- Generator: Adobe Illustrator 16.0.3, SVG Export Plug-In . SVG Version: 6.00 Build 0)  -->
<!DOCTYPE svg PUBLIC "-//W3C//DTD SVG 1.1//EN" "http://www.w3.org/Graphics/SVG/1.1/DTD/svg11.dtd">
<svg version="1.1" id="Warstwa_1" xmlns="http://www.w3.org/2000/svg" xmlns:xlink="http://www.w3.org/1999/xlink" x="0px" y="0px"
	 width="15.002px" height="12px" viewBox="0 0 15.002 12" enable-background="new 0 0 15.002 12" xml:space="preserve">
<path fill="#5E7799" d="M14.588,0.221c-0.595,0.347-1.254,0.599-1.955,0.735C12.073,0.368,11.273,0,10.387,0
	c-1.7,0-3.078,1.357-3.078,3.029c0,0.237,0.026,0.469,0.079,0.691C4.831,3.593,2.563,2.386,1.045,0.554
	C0.78,1.002,0.628,1.522,0.628,2.078c0,1.051,0.543,1.978,1.369,2.521c-0.504-0.017-0.979-0.152-1.394-0.38
	C0.602,4.233,0.602,4.245,0.602,4.257c0,1.469,1.062,2.693,2.47,2.972c-0.259,0.068-0.53,0.105-0.811,0.105
	c-0.198,0-0.391-0.02-0.579-0.055C2.073,8.485,3.21,9.359,4.557,9.384c-1.053,0.813-2.38,1.296-3.823,1.296
	c-0.249,0-0.493-0.013-0.734-0.041C1.363,11.499,2.98,12,4.718,12c5.662,0,8.758-4.616,8.758-8.62c0-0.132-0.003-0.262-0.009-0.392
	c0.601-0.428,1.122-0.961,1.535-1.567c-0.552,0.24-1.145,0.402-1.768,0.476C13.871,1.522,14.358,0.929,14.588,0.221"/>
</svg>
