<?xml version="1.0" encoding="utf-8"?>
<!-- Generator: Adobe Illustrator 16.0.3, SVG Export Plug-In . SVG Version: 6.00 Build 0)  -->
<!DOCTYPE svg PUBLIC "-//W3C//DTD SVG 1.1//EN" "http://www.w3.org/Graphics/SVG/1.1/DTD/svg11.dtd">
<svg version="1.1" id="Warstwa_1" xmlns="http://www.w3.org/2000/svg" xmlns:xlink="http://www.w3.org/1999/xlink" x="0px" y="0px"
	 width="17.123px" height="12px" viewBox="0 0 17.123 12" enable-background="new 0 0 17.123 12" xml:space="preserve">
<g>
	<path fill-rule="evenodd" clip-rule="evenodd" fill="#5E7799" d="M1.761,11.65c-0.647-0.211-1.082-0.635-1.314-1.276
		C-0.123,8.809-0.29,2.262,0.805,0.972c0.375-0.44,0.856-0.7,1.43-0.761c2.954-0.317,12.08-0.273,13.132,0.108
		c0.615,0.222,1.053,0.624,1.291,1.24c0.623,1.618,0.645,7.505-0.082,9.064c-0.197,0.422-0.52,0.722-0.928,0.934
		C14.549,12.135,3.211,12.127,1.761,11.65z M6.452,8.582c1.774-0.92,3.535-1.833,5.318-2.757C9.987,4.893,8.224,3.975,6.452,3.049
		C6.452,4.899,6.452,6.729,6.452,8.582z"/>
</g>
</svg>
